(footprint "SW_TH_Tactile_Omron_B3F-10xx" (version 20211014) (generator pcbnew)
  (layer "F.Cu")
  (tedit 61EC59FC)
  (descr "SW_TH_Tactile_Omron_B3F-10xx_https://www.omron.com/ecb/products/pdf/en-b3f.pdf")
  (tags "Omron B3F-10xx")
  (attr through_hole)
  (fp_text reference "REF**" (at 3.25 -2.05) (layer "F.SilkS")
    (effects (font (size 1 1) (thickness 0.15)))
    (tstamp f3bcf8a6-70ef-4656-a878-b5c886494a53)
  )
  (fp_text value "SW_TH_Tactile_Omron_B3F-10xx" (at 3.2 6.5) (layer "F.Fab")
    (effects (font (size 1 1) (thickness 0.15)))
    (tstamp c2c74f85-e85e-4734-be3d-fa070000a192)
  )
  (fp_text user "${REFERENCE}" (at 3.25 2.25) (layer "F.Fab")
    (effects (font (size 1 1) (thickness 0.15)))
    (tstamp 8552e9e7-04e1-49ea-a686-a611294755b1)
  )
  (fp_line (start 0.13 3.59) (end 0.13 0.91) (layer "F.SilkS") (width 0.12) (tstamp 27fe9b6a-c6bf-49f0-b603-ec6c5d9b1ab9))
  (fp_line (start 0.28 5.37) (end 6.22 5.37) (layer "F.SilkS") (width 0.12) (tstamp 3f002d41-05e4-431a-97a7-7949d16040de))
  (fp_line (start 6.37 0.91) (end 6.37 3.59) (layer "F.SilkS") (width 0.12) (tstamp c0f58e0c-ce2c-4820-abfb-b36a93c5c99c))
  (fp_line (start 0.28 -0.87) (end 6.22 -0.87) (layer "F.SilkS") (width 0.12) (tstamp f5e907b5-7390-4bf7-af24-f64dca48a7f8))
  (fp_circle (center 3.25 2.25) (end 4.25 3.25) (layer "F.SilkS") (width 0.12) (fill none) (tstamp 4e043258-135e-4e50-8f20-b93a70d7b074))
  (fp_line (start -1.1 -1.1) (end 7.6 -1.1) (layer "F.CrtYd") (width 0.05) (tstamp 9108a3d9-b766-4996-b2bc-504fb0d78c78))
  (fp_line (start 7.6 5.6) (end 7.6 -1.1) (layer "F.CrtYd") (width 0.05) (tstamp 97103633-1ac2-4df6-b756-b54051086fa6))
  (fp_line (start -1.1 5.6) (end 7.6 5.6) (layer "F.CrtYd") (width 0.05) (tstamp d82c7687-6756-432d-8a5b-e15628c59f08))
  (fp_line (start -1.1 -1.1) (end -1.1 5.6) (layer "F.CrtYd") (width 0.05) (tstamp fa206364-4b35-4e18-a11e-2f07faa17c6f))
  (fp_line (start 0.25 -0.75) (end 0.25 5.25) (layer "F.Fab") (width 0.1) (tstamp 68170204-2bb1-484f-9fbb-80a52ec17f63))
  (fp_line (start 0.25 -0.75) (end 6.25 -0.75) (layer "F.Fab") (width 0.1) (tstamp 83349919-ec81-40da-aefa-f8059993d9a1))
  (fp_line (start 0.25 5.25) (end 6.25 5.25) (layer "F.Fab") (width 0.1) (tstamp 9a2e808a-c7f1-4dbd-af33-d801a8e0f070))
  (fp_line (start 6.25 -0.75) (end 6.25 5.25) (layer "F.Fab") (width 0.1) (tstamp e0ee84a5-c2c8-4a9e-8a47-ed960eb8c096))
  (pad "1" thru_hole circle (at 0 0) (size 1.7 1.7) (drill 1) (layers *.Cu *.Mask) (tstamp ee1616be-3af4-4d1d-96b5-541d19557273))
  (pad "2" thru_hole circle (at 0 4.5) (size 1.7 1.7) (drill 1) (layers *.Cu *.Mask) (tstamp daf085bd-70df-419e-a957-02914568e0f9))
  (pad "3" thru_hole circle (at 6.5 0) (size 1.7 1.7) (drill 1) (layers *.Cu *.Mask) (tstamp 130b9ada-7aba-4fd3-8830-5ad15b027dac))
  (pad "4" thru_hole circle (at 6.5 4.5) (size 1.7 1.7) (drill 1) (layers *.Cu *.Mask) (tstamp 65a424f4-9f68-4376-86e4-1cb03f2e6524))
  (model "${KICAD6_3DMODEL_DIR}/Button_Switch_THT.3dshapes/SW_TH_Tactile_Omron_B3F-10xx.wrl"
    (offset (xyz 0 0 0))
    (scale (xyz 1 1 1))
    (rotate (xyz 0 0 0))
  )
)
